^D:\DDRIVE\MSC PROJECT\RESULT\GEOMETRY CLIPMAPS\GEOMETRY CLIPMAPS\GENERATEDFILES\DEBUG\MOC_RENDERWIDGET.CPP|D:\DDRIVE\MSC PROJECT\RESULT\GEOMETRY CLIPMAPS\GEOMETRY CLIPMAPS\GENERATEDFILES\DEBUG\MOC_RENDERWINDOW.CPP|D:\DDRIVE\MSC PROJECT\RESULT\GEOMETRY CLIPMAPS\GEOMETRY CLIPMAPS\GENERATEDFILES\QRC_GEOMETRYCLIPMAPS.CPP|D:\DDRIVE\MSC PROJECT\RESULT\GEOMETRY CLIPMAPS\GEOMETRY CLIPMAPS\MAIN.CPP|D:\DDRIVE\MSC PROJECT\RESULT\GEOMETRY CLIPMAPS\GEOMETRY CLIPMAPS\READTIFF.CPP|D:\DDRIVE\MSC PROJECT\RESULT\GEOMETRY CLIPMAPS\GEOMETRY CLIPMAPS\RENDERWIDGET.CPP|D:\DDRIVE\MSC PROJECT\RESULT\GEOMETRY CLIPMAPS\GEOMETRY CLIPMAPS\RENDERWINDOW.CPP
D:\DDRIVE\MSC PROJECT\RESULT\GEOMETRY CLIPMAPS\GEOMETRY CLIPMAPS\DEBUG\RENDERWIDGET.OBJ
D:\DDRIVE\MSC PROJECT\RESULT\GEOMETRY CLIPMAPS\GEOMETRY CLIPMAPS\DEBUG\RENDERWINDOW.OBJ
D:\DDRIVE\MSC PROJECT\RESULT\GEOMETRY CLIPMAPS\GEOMETRY CLIPMAPS\DEBUG\READTIFF.OBJ
D:\DDRIVE\MSC PROJECT\RESULT\GEOMETRY CLIPMAPS\GEOMETRY CLIPMAPS\DEBUG\QRC_GEOMETRYCLIPMAPS.OBJ
D:\DDRIVE\MSC PROJECT\RESULT\GEOMETRY CLIPMAPS\GEOMETRY CLIPMAPS\DEBUG\MOC_RENDERWINDOW.OBJ
D:\DDRIVE\MSC PROJECT\RESULT\GEOMETRY CLIPMAPS\GEOMETRY CLIPMAPS\DEBUG\MAIN.OBJ
D:\DDRIVE\MSC PROJECT\RESULT\GEOMETRY CLIPMAPS\GEOMETRY CLIPMAPS\DEBUG\MOC_RENDERWIDGET.OBJ
^D:\DDRIVE\MSC PROJECT\RESULT\GEOMETRY CLIPMAPS\GEOMETRY CLIPMAPS\MAIN.CPP
D:\DDRIVE\MSC PROJECT\RESULT\GEOMETRY CLIPMAPS\GEOMETRY CLIPMAPS\DEBUG\VC141.PDB
^D:\DDRIVE\MSC PROJECT\RESULT\GEOMETRY CLIPMAPS\GEOMETRY CLIPMAPS\READTIFF.CPP
D:\DDRIVE\MSC PROJECT\RESULT\GEOMETRY CLIPMAPS\GEOMETRY CLIPMAPS\DEBUG\VC141.PDB
^D:\DDRIVE\MSC PROJECT\RESULT\GEOMETRY CLIPMAPS\GEOMETRY CLIPMAPS\RENDERWIDGET.CPP
D:\DDRIVE\MSC PROJECT\RESULT\GEOMETRY CLIPMAPS\GEOMETRY CLIPMAPS\DEBUG\VC141.PDB
^D:\DDRIVE\MSC PROJECT\RESULT\GEOMETRY CLIPMAPS\GEOMETRY CLIPMAPS\RENDERWINDOW.CPP
D:\DDRIVE\MSC PROJECT\RESULT\GEOMETRY CLIPMAPS\GEOMETRY CLIPMAPS\DEBUG\VC141.PDB
^D:\DDRIVE\MSC PROJECT\RESULT\GEOMETRY CLIPMAPS\GEOMETRY CLIPMAPS\GENERATEDFILES\QRC_GEOMETRYCLIPMAPS.CPP
D:\DDRIVE\MSC PROJECT\RESULT\GEOMETRY CLIPMAPS\GEOMETRY CLIPMAPS\DEBUG\VC141.PDB
^D:\DDRIVE\MSC PROJECT\RESULT\GEOMETRY CLIPMAPS\GEOMETRY CLIPMAPS\GENERATEDFILES\DEBUG\MOC_RENDERWINDOW.CPP
D:\DDRIVE\MSC PROJECT\RESULT\GEOMETRY CLIPMAPS\GEOMETRY CLIPMAPS\DEBUG\VC141.PDB
^D:\DDRIVE\MSC PROJECT\RESULT\GEOMETRY CLIPMAPS\GEOMETRY CLIPMAPS\GENERATEDFILES\DEBUG\MOC_RENDERWIDGET.CPP
D:\DDRIVE\MSC PROJECT\RESULT\GEOMETRY CLIPMAPS\GEOMETRY CLIPMAPS\DEBUG\VC141.PDB
