Mode, FPS value,,
move,24,stop,16
move,26,stop,58
move,26,stop,58
move,24,stop,58
move,26,stop,58
move,26,stop,58
move,26,stop,58
move,26,stop,58
move,26,stop,58
move,26,stop,58
move,26,stop,58
move,26,stop,58
move,26,stop,58
move,26,stop,58
move,26,stop,58
move,26,stop,56
move,26,stop,58
move,26,stop,58
move,26,stop,58
move,26,stop,58
move,26,stop,58
move,26,stop,58
move,26,stop,54
move,26,stop,58
move,26,stop,58
move,26,stop,58
move,26,stop,58
move,26,stop,58
move,26,stop,58
move,26,stop,58
move,26,stop,58
move,26,stop,58
move,26,stop,58
move,26,stop,58
move,26,stop,58
move,26,stop,58
move,26,stop,58
move,26,stop,58
move,26,stop,58
move,26,stop,58
move,26,stop,58
move,26,stop,58
move,26,stop,58
move,26,stop,58
move,26,stop,58
move,26,stop,58
move,26,stop,58
move,26,stop,58
move,26,stop,58
move,26,stop,58
move,26,stop,58
move,26,stop,58
move,26,stop,58
move,26,stop,58
move,26,stop,58
move,26,stop,58
move,26,stop,58
move,26,stop,58
move,26,stop,58
move,26,stop,58
move,26,stop,58
move,26,stop,58
move,26,stop,56
move,26,stop,58
move,26,stop,58
move,26,stop,58
move,26,stop,58
move,26,stop,58
move,26,stop,58
move,26,stop,58
move,26,stop,58
move,26,stop,58
move,26,stop,58
move,26,stop,58
move,26,stop,58
move,26,stop,58
move,26,stop,58
move,26,stop,58
move,26,stop,58
move,26,stop,58
move,26,stop,58
move,26,stop,58
move,26,stop,58
move,26,stop,58
move,26,stop,58
move,26,stop,58
move,26,stop,58
move,26,stop,58
move,26,stop,58
move,26,stop,58
move,26,stop,58
move,26,stop,58
move,26,stop,58
move,26,stop,58
move,26,stop,58
move,26,stop,58
move,24,stop,58
move,26,stop,58
move,26,stop,58
move,26,stop,58
move,26,stop,58
move,26,stop,58
move,26,stop,58
move,26,stop,58
move,26,stop,58
move,26,stop,58
move,26,stop,58
move,26,stop,58
move,26,stop,58
move,26,stop,58
move,26,stop,58
move,26,stop,58
move,26,stop,58
move,26,stop,58
move,26,stop,58
move,26,stop,58
move,26,stop,58
move,26,stop,58
move,26,stop,58
move,26,stop,58
move,26,stop,58
move,26,stop,58
move,26,stop,58
move,26,stop,58
move,26,stop,58
move,26,stop,58
move,26,stop,58
move,26,stop,56
move,26,stop,58
move,26,stop,58
move,26,stop,58
move,26,stop,58
move,26,stop,58
move,26,stop,58
move,26,stop,58
move,26,stop,58
move,26,stop,58
move,26,stop,58
move,26,stop,58
move,26,stop,58
move,26,stop,58
move,26,stop,58
move,26,stop,58
move,26,stop,58
move,26,stop,58
move,26,stop,58
move,26,stop,58
move,26,stop,58
move,26,stop,58
move,26,stop,58
move,26,stop,58
move,26,stop,58
move,26,stop,58
move,26,stop,58
move,26,stop,58
move,26,stop,58
move,26,stop,58
move,26,stop,58
move,26,stop,58
move,26,stop,58
move,26,stop,58
move,26,stop,58
move,26,stop,58
move,26,stop,58
move,26,stop,58
move,26,stop,58
move,26,stop,58
move,26,stop,58
move,26,stop,58
move,26,stop,58
move,26,stop,58
move,26,stop,58
move,26,stop,58
move,26,stop,58
move,26,stop,58
move,26,stop,58
move,26,stop,58
move,26,stop,58
move,26,stop,58
move,26,stop,58
move,26,stop,58
move,26,stop,58
move,26,stop,58
move,26,stop,58
move,26,stop,58
move,26,stop,58
move,26,stop,58
move,26,stop,58
move,26,stop,58
move,26,stop,58
move,26,stop,58
move,26,stop,58
move,26,stop,58
move,26,stop,58
move,26,stop,58
move,26,stop,58
move,26,stop,58
move,26,stop,58
move,26,stop,58
move,26,stop,58
move,26,stop,58
move,26,stop,58
move,26,stop,58
move,24,stop,58
move,24,stop,58
move,26,stop,58
move,24,stop,58
move,24,stop,58
move,26,stop,58
move,26,stop,58
move,26,stop,58
move,26,stop,58
move,26,stop,58
move,26,stop,58
move,26,stop,58
move,26,stop,58
move,26,stop,58
move,26,stop,58
move,26,stop,58
move,26,stop,58
move,26,stop,58
move,26,stop,58
move,26,stop,58
move,26,stop,58
move,26,stop,58
move,26,stop,58
move,26,stop,58
move,26,stop,58
move,26,stop,58
move,26,stop,58
move,26,stop,58
move,26,stop,58
move,26,stop,58
move,26,stop,58
move,26,stop,58
move,26,stop,58
move,26,stop,58
move,26,stop,58
move,26,stop,58
move,26,stop,58
,25.94166667,,57.78333333
,,,
total fps average:,,41.8625,
