﻿Mode, FPS value,,
move,10,stop,34
move,16,stop,34
move,16,stop,36
move,16,stop,36
move,18,stop,32
move,18,stop,34
move,18,stop,34
move,10,stop,34
move,12,stop,32
move,10,stop,34
move,12,stop,34
move,16,stop,34
move,16,stop,32
move,18,stop,34
move,18,stop,34
move,16,stop,34
move,18,stop,34
move,16,stop,36
move,18,stop,36
move,18,stop,34
move,16,stop,34
move,16,stop,34
move,16,stop,36
move,16,stop,32
move,18,stop,34
move,16,stop,36
move,18,stop,36
move,16,stop,36
move,16,stop,32
move,16,stop,34
move,16,stop,30
move,16,stop,36
move,18,stop,28
move,18,stop,26
move,18,stop,26
move,18,stop,20
move,18,stop,34
move,16,stop,36
move,16,stop,34
move,16,stop,34
move,18,stop,30
move,18,stop,34
move,16,stop,34
move,18,stop,34
move,16,stop,34
move,16,stop,36
move,18,stop,34
move,16,stop,30
move,16,stop,34
move,18,stop,36
move,18,stop,34
move,16,stop,34
move,18,stop,32
move,16,stop,36
move,18,stop,32
move,18,stop,34
move,16,stop,32
move,16,stop,32
move,18,stop,36
move,18,stop,36
move,18,stop,34
move,16,stop,34
move,18,stop,32
move,16,stop,36
move,16,stop,30
move,18,stop,34
move,18,stop,36
move,16,stop,36
move,16,stop,34
move,16,stop,34
move,18,stop,32
move,16,stop,36
move,16,stop,34
move,18,stop,34
move,18,stop,32
move,16,stop,34
move,16,stop,34
move,16,stop,32
move,16,stop,34
move,18,stop,32
move,18,stop,32
move,16,stop,34
move,16,stop,34
move,16,stop,36
move,16,stop,34
move,16,stop,32
move,18,stop,34
move,18,stop,34
move,16,stop,34
move,16,stop,34
move,16,stop,34
move,16,stop,34
move,16,stop,34
move,16,stop,32
move,18,stop,34
move,18,stop,36
move,18,stop,34
move,16,stop,32
move,18,stop,36
move,16,stop,34
move,18,stop,32
move,18,stop,36
move,18,stop,30
move,16,stop,34
move,18,stop,34
move,18,stop,34
move,16,stop,34
move,16,stop,34
move,16,stop,34
move,16,stop,34
move,18,stop,34
move,18,stop,36
move,18,stop,34
move,18,stop,34
move,18,stop,36
move,18,stop,36
move,16,stop,36
move,18,stop,34
move,16,stop,32
move,18,stop,36
move,16,stop,36
move,16,stop,34
move,16,stop,34
move,16,stop,32
move,16,stop,34
move,18,stop,36
move,18,stop,36
move,18,stop,36
move,16,stop,34
move,16,stop,36
move,16,stop,34
move,16,stop,32
move,18,stop,34
move,18,stop,32
move,18,stop,34
move,16,stop,36
move,18,stop,32
move,16,stop,34
move,16,stop,34
move,18,stop,34
move,18,stop,32
move,18,stop,34
move,16,stop,34
move,16,stop,34
move,16,stop,32
move,16,stop,34
move,18,stop,34
move,18,stop,34
move,18,stop,36
move,18,stop,34
move,16,stop,34
move,16,stop,34
move,16,stop,34
move,18,stop,34
move,16,stop,34
move,16,stop,32
move,16,stop,34
move,16,stop,36
move,16,stop,34
move,18,stop,34
move,18,stop,34
move,16,stop,32
move,16,stop,34
move,18,stop,36
move,16,stop,32
move,18,stop,34
move,16,stop,34
move,16,stop,36
move,18,stop,32
move,18,stop,34
move,16,stop,34
move,18,stop,36
move,18,stop,34
move,18,stop,36
move,18,stop,36
move,18,stop,34
move,18,stop,36
move,18,stop,34
move,16,stop,34
move,16,stop,32
move,16,stop,34
move,16,stop,36
move,16,stop,34
move,16,stop,34
move,16,stop,34
move,16,stop,34
move,18,stop,34
move,16,stop,32
move,18,stop,36
move,18,stop,34
move,18,stop,32
move,18,stop,34
move,18,stop,32
move,18,stop,34
move,18,stop,36
move,16,stop,32
move,18,stop,36
move,18,stop,36
move,18,stop,36
move,18,stop,34
move,16,stop,32
move,18,stop,36
move,18,stop,36
move,16,stop,34
move,18,stop,36
move,18,stop,34
move,18,stop,34
move,16,stop,34
move,18,stop,32
move,16,stop,36
move,18,stop,36
move,18,stop,34
move,18,stop,34
move,18,stop,34
move,16,stop,34
move,16,stop,34
move,18,stop,34
move,18,stop,34
move,18,stop,34
move,18,stop,34
,16.86363636,,33.89090909
,,,
total fps average:,,25.37727273,
