Mode, FPS value
move, 10
stop, 9
stop, 43
stop, 43
stop, 42
stop, 42
stop, 43
stop, 43
stop, 42
stop, 42
stop, 43
stop, 43
stop, 43
stop, 43
stop, 43
stop, 43
stop, 43
stop, 43
stop, 43
stop, 43
stop, 45
stop, 43
stop, 42
stop, 43
stop, 43
stop, 43
stop, 43
stop, 43
stop, 42
stop, 43
stop, 43
stop, 43
stop, 43
stop, 43
stop, 42
stop, 43
stop, 43
stop, 42
stop, 45
stop, 43
stop, 43
stop, 43
stop, 43
stop, 43
stop, 42
stop, 43
stop, 43
stop, 43
stop, 42
stop, 43
stop, 43
stop, 43
stop, 42
