Mode, FPS value,,
move,1.267427,stop,1.469508
move,1.50263,stop,1.648805
move,1.633987,stop,2.239642
move,1.607717,stop,2.262443
move,1.626016,stop,2.304147
move,1.614205,stop,2.283105
move,1.633987,stop,2.262443
move,1.628664,stop,2.290951
move,1.631321,stop,2.277904
move,1.620746,stop,2.293578
move,1.631321,stop,2.309469
move,1.636661,stop,2.306805
move,1.618123,stop,2.270148
move,1.629992,stop,2.293578
move,1.632653,stop,2.207506
move,1.629992,stop,2.178649
move,1.632653,stop,2.237136
move,1.626016,stop,2.181025
move,1.629992,stop,2.212389
move,1.601281,stop,2.197802
move,1.631321,stop,2.188184
move,1.618123,stop,2.207506
move,1.631321,stop,2.219756
move,1.624695,stop,2.164502
move,1.631321,stop,2.212389
move,1.629992,stop,2.190581
move,1.611604,stop,2.176279
move,1.624695,stop,2.197802
move,1.631321,stop,2.209945
move,1.631321,stop,2.166847
move,1.618123,stop,2.209945
move,1.628664,stop,2.214839
move,1.633987,stop,2.185792
move,1.619433,stop,2.197802
move,1.623377,stop,2.224694
move,1.624695,stop,2.176279
move,1.618123,stop,2.19539
move,1.62206,stop,1.956947
move,1.610306,stop,2.150538
move,1.618123,stop,2.183406
move,1.627339,stop,2.159827
move,1.628664,stop,2.219756
move,1.628664,stop,2.188184
move,1.62206,stop,2.183406
move,1.514005,stop,2.222222
move,1.55642,stop,2.181025
move,1.5625,stop,2.185792
move,1.545595,stop,2.207506
move,1.579779,stop,2.20022
move,1.579779,stop,2.164502
move,1.572327,stop,2.217295
move,1.581028,stop,2.181025
move,1.574803,stop,2.202643
move,1.589825,stop,2.207506
move,1.576044,stop,2.171553
move,1.571092,stop,2.030457
move,1.592357,stop,1.821494
move,1.633987,stop,2.085506
move,1.619433,stop,2.157497
move,1.623377,stop,2.219756
move,1.624695,stop,2.190581
move,1.633987,stop,2.171553
move,1.619433,stop,2.20022
move,1.623377,stop,2.183406
move,1.624695,stop,2.176279
move,1.618123,stop,2.197802
move,1.62206,stop,2.212389
move,1.610306,stop,2.192982
move,1.633987,stop,1.926782
move,1.619433,stop,2.083333
move,1.633987,stop,2.152853
move,1.619433,stop,2.185792
move,1.623377,stop,2.192982
move,1.624695,stop,2.19539
move,1.618123,stop,2.181025
move,1.62206,stop,2.171553
move,1.633987,stop,2.219756
move,1.619433,stop,2.171553
move,1.623377,stop,2.166847
move,1.624695,stop,2.178649
move,1.633987,stop,2.229654
move,1.619433,stop,2.183406
move,1.623377,stop,2.183406
move,1.624695,stop,2.217295
move,1.618123,stop,2.185792
move,1.629492,stop,2.136752
move,1.610306,stop,2.197802
move,1.633987,stop,2.166847
move,1.619433,stop,2.164502
move,1.633987,stop,2.219756
move,1.619433,stop,2.190581
move,1.623377,stop,2.171553
move,1.633987,stop,2.20022
move,1.619433,stop,2.219756
move,1.623377,stop,2.190581
move,1.624695,stop,2.171553
move,1.618123,stop,2.20022
move,1.633987,stop,2.219756
move,1.619433,stop,2.190581
move,1.623377,stop,2.171553
move,1.633987,stop,2.20022
move,1.619433,stop,2.219756
move,1.623377,stop,2.190581
move,1.624695,stop,2.171553
move,1.618123,stop,2.20022
move,1.629992,stop,2.183406
move,1.610306,stop,2.176279
move,1.618123,stop,2.197802
,1.613281556,,2.178395722
,,,
total fps average:,,1.895838639,
