Mode, FPS value,,
move,2.496879,stop,3.355705
move,2.55102,stop,3.960396
move,2.544529,stop,3.90625
move,2.554278,stop,3.960396
move,2.541296,stop,3.960396
move,2.55102,stop,3.960396
move,2.554278,stop,3.960396
move,2.554278,stop,3.952569
move,2.554278,stop,3.960396
move,2.554278,stop,3.944773
move,2.547771,stop,3.968254
move,2.554278,stop,3.960396
move,2.554278,stop,3.952569
move,2.55102,stop,3.944773
move,2.554278,stop,3.960396
move,2.55102,stop,3.944773
move,2.547771,stop,3.952569
move,2.554278,stop,3.937008
move,2.544529,stop,3.960396
move,2.55102,stop,3.960396
move,2.554278,stop,3.960396
move,2.55102,stop,3.944773
move,2.554278,stop,3.952569
move,2.547771,stop,3.952569
move,2.55102,stop,3.952569
move,2.55102,stop,3.944773
move,2.544529,stop,3.960396
move,2.55102,stop,3.960396
move,2.547771,stop,3.952569
move,2.547771,stop,3.952569
move,2.544529,stop,3.960396
move,2.544529,stop,3.952569
move,2.554278,stop,3.960396
move,2.547771,stop,3.944773
move,2.55102,stop,3.968254
move,2.547771,stop,3.952569
move,2.547771,stop,3.960396
move,2.55102,stop,3.944773
move,2.544529,stop,3.960396
move,2.55102,stop,3.952569
move,2.55102,stop,3.960396
move,2.547771,stop,3.952569
move,2.554278,stop,3.960396
move,2.547771,stop,3.960396
move,2.554278,stop,3.960396
move,2.554278,stop,3.960396
move,2.547771,stop,3.952569
move,2.55102,stop,3.960396
move,2.557545,stop,3.944773
move,2.55102,stop,3.968254
move,2.55102,stop,3.960396
move,2.547771,stop,3.960396
move,2.547771,stop,3.960396
move,2.554278,stop,3.952569
move,2.55102,stop,3.960396
move,2.55102,stop,3.960396
move,2.547771,stop,3.960396
move,2.55102,stop,3.952569
move,2.55102,stop,3.952569
move,2.544529,stop,3.960396
move,2.554278,stop,3.952569
move,2.55102,stop,3.960396
move,2.554278,stop,3.960396
move,2.544529,stop,3.355705
move,2.547771,stop,3.960396
move,2.55102,stop,3.90625
move,2.541296,stop,3.960396
move,2.547771,stop,3.960396
move,2.55102,stop,3.960396
move,2.547771,stop,3.960396
move,2.55102,stop,3.952569
move,2.55102,stop,3.960396
move,2.55102,stop,3.944773
move,2.547771,stop,3.968254
move,2.547771,stop,3.960396
move,2.55102,stop,3.952569
move,2.55102,stop,3.944773
move,2.544529,stop,3.960396
move,2.55102,stop,3.944773
move,2.55102,stop,3.952569
move,2.547771,stop,3.937008
move,2.55102,stop,3.960396
move,2.55102,stop,3.960396
move,2.55102,stop,3.960396
move,2.538071,stop,3.944773
move,2.547771,stop,3.952569
move,2.547771,stop,3.952569
move,2.55102,stop,3.952569
move,2.55102,stop,3.944773
move,2.547771,stop,3.960396
move,2.554278,stop,3.960396
move,2.547771,stop,3.952569
move,2.547771,stop,3.952569
move,2.544529,stop,3.960396
move,2.55102,stop,3.952569
move,2.55102,stop,3.960396
move,2.547771,stop,3.944773
move,2.55102,stop,3.968254
move,2.55102,stop,3.952569
move,2.55102,stop,3.960396
move,2.538071,stop,3.944773
move,2.547771,stop,3.960396
move,2.547771,stop,3.952569
move,2.55102,stop,3.960396
move,2.55102,stop,3.952569
move,2.547771,stop,3.960396
move,2.554278,stop,3.960396
move,2.547771,stop,3.960396
move,2.547771,stop,3.960396
move,2.544529,stop,3.952569
move,2.55102,stop,3.960396
move,2.55102,stop,3.944773
move,2.547771,stop,3.968254
move,2.55102,stop,3.960396
move,2.55102,stop,3.960396
move,2.55102,stop,3.960396
move,2.538071,stop,3.952569
move,2.547771,stop,3.960396
move,2.544529,stop,3.960396
move,2.55102,stop,3.960396
move,2.55102,stop,3.952569
move,2.547771,stop,3.952569
move,2.55102,stop,3.960396
move,2.55102,stop,3.952569
move,2.55102,stop,3.960396
move,2.538071,stop,3.960396
,2.549098905,,3.945845302
,,,
total fps average:,,3.247472103,
