﻿Mode, FPS value,,
move,1.39958,stop,2.188184
move,1.594896,stop,1.930502
move,1.527884,stop,2.014099
move,1.620746,stop,2.222222
move,1.626016,stop,2.185792
move,1.619433,stop,2.227171
move,1.62206,stop,2.192982
move,1.594896,stop,2.098636
move,1.627339,stop,2.150538
move,1.624695,stop,2.192982
move,1.620746,stop,2.188184
move,1.631321,stop,2.214839
move,1.627339,stop,2.192982
move,1.615509,stop,2.183406
move,1.620746,stop,2.232143
move,1.633987,stop,2.166847
move,1.632653,stop,2.217295
move,1.632653,stop,2.026342
move,1.13443,stop,2.159827
move,1.306336,stop,2.217295
move,1.605136,stop,2.166847
move,1.619433,stop,2.232143
move,1.632653,stop,2.202643
move,1.627339,stop,2.205072
move,1.629992,stop,2.229654
move,1.627339,stop,2.197802
move,1.628664,stop,2.232143
move,1.536098,stop,2.178649
move,1.606426,stop,2.181025
move,1.614205,stop,2.19539
move,1.627339,stop,2.034588
move,1.620746,stop,2.145923
move,1.573564,stop,2.190581
move,1.631321,stop,2.205072
move,1.629992,stop,2.202643
move,1.629992,stop,2.157497
move,1.598721,stop,2.217295
move,1.582278,stop,2.205072
move,1.571092,stop,2.192982
move,1.578532,stop,2.209945
move,1.593625,stop,2.19539
move,1.566171,stop,2.188184
move,1.574803,stop,2.227171
move,1.59109,stop,2.192982
move,1.573564,stop,2.219756
move,1.574803,stop,2.212389
move,1.586043,stop,2.188184
move,1.577287,stop,2.227171
move,1.620746,stop,2.19539
move,1.633987,stop,2.219756
move,1.632653,stop,2.209945
move,1.632653,stop,2.181025
move,1.13443,stop,2.205072
move,1.306336,stop,2.192982
move,1.605136,stop,2.217295
move,1.619433,stop,2.212389
move,1.632653,stop,2.181025
move,1.627339,stop,2.229654
move,1.629992,stop,2.192982
move,1.627339,stop,2.217295
move,1.628664,stop,2.217295
move,1.536098,stop,2.19539
move,1.606426,stop,2.227171
move,1.620746,stop,2.178649
move,1.633987,stop,2.188184
move,1.632653,stop,2.239642
move,1.632653,stop,2.185792
move,1.13443,stop,2.205072
move,1.306336,stop,2.227171
move,1.605136,stop,2.188184
move,1.619433,stop,2.222222
move,1.632653,stop,2.205072
move,1.627339,stop,2.173913
move,1.629992,stop,2.227171
move,1.627339,stop,2.183406
move,1.628664,stop,2.205072
move,1.536098,stop,2.188184
move,1.606426,stop,2.202643
move,1.620746,stop,2.219756
move,1.633987,stop,2.190581
move,1.632653,stop,2.212389
move,1.632653,stop,2.205072
move,1.13443,stop,2.192982
move,1.306336,stop,2.232143
move,1.605136,stop,2.192982
move,1.619433,stop,2.197802
move,1.632653,stop,2.232143
move,1.627339,stop,2.19539
move,1.629992,stop,2.183406
move,1.627339,stop,2.222222
move,1.628664,stop,2.207506
move,1.536098,stop,2.192982
move,1.606426,stop,2.232143
move,1.620746,stop,2.181025
move,1.633987,stop,2.212389
move,1.632653,stop,2.212389
move,1.632653,stop,2.183406
move,1.13443,stop,2.202643
move,1.306336,stop,2.207506
move,1.605136,stop,2.183406
move,1.619433,stop,2.207506
move,1.632653,stop,2.173913
move,1.627339,stop,2.192982
move,1.629992,stop,2.214839
move,1.620746,stop,2.190581
move,1.633987,stop,2.205072
move,1.632653,stop,2.217295
move,1.632653,stop,2.19539
move,1.13443,stop,2.209945
move,1.306336,stop,2.212389
move,1.605136,stop,2.188184
move,1.619433,stop,2.222222
move,1.632653,stop,2.176279
move,1.620746,stop,2.188184
move,1.633987,stop,2.234637
move,1.632653,stop,2.166847
move,1.632653,stop,2.205072
move,1.13443,stop,2.224694
move,1.306336,stop,2.183406
move,1.605136,stop,2.190581
move,1.619433,stop,2.219756
move,1.632653,stop,2.190581
move,1.627339,stop,2.159827
,1.568145683,,2.193609341
,,,
total fps average:,,1.880877512,
