^OriginalTerrainRendering.ui
D:\Ddrive\MSc Project\Result\Original Terrain Rendering\Original Terrain Rendering\GeneratedFiles\ui_OriginalTerrainRendering.h
^OriginalTerrainRendering.qrc
D:\Ddrive\MSc Project\Result\Original Terrain Rendering\Original Terrain Rendering\GeneratedFiles\qrc_OriginalTerrainRendering.cpp
^renderWindow.h
D:\Ddrive\MSc Project\Result\Original Terrain Rendering\Original Terrain Rendering\GeneratedFiles\Debug\moc_renderWindow.cpp
^renderWidget.h
D:\Ddrive\MSc Project\Result\Original Terrain Rendering\Original Terrain Rendering\GeneratedFiles\Debug\moc_renderWidget.cpp
^OriginalTerrainRendering.ui
D:\Ddrive\MSc Project\Result\Original Terrain Rendering\Original Terrain Rendering\GeneratedFiles\ui_OriginalTerrainRendering.h
^OriginalTerrainRendering.qrc
D:\Ddrive\MSc Project\Result\Original Terrain Rendering\Original Terrain Rendering\GeneratedFiles\qrc_OriginalTerrainRendering.cpp
^renderWindow.h
D:\Ddrive\MSc Project\Result\Original Terrain Rendering\Original Terrain Rendering\GeneratedFiles\Debug\moc_renderWindow.cpp
^renderWidget.h
D:\Ddrive\MSc Project\Result\Original Terrain Rendering\Original Terrain Rendering\GeneratedFiles\Debug\moc_renderWidget.cpp
^OriginalTerrainRendering.ui
D:\Ddrive\MSc Project\Result\Original Terrain Rendering\Original Terrain Rendering\GeneratedFiles\ui_OriginalTerrainRendering.h
^OriginalTerrainRendering.qrc
D:\Ddrive\MSc Project\Result\Original Terrain Rendering\Original Terrain Rendering\GeneratedFiles\qrc_OriginalTerrainRendering.cpp
^renderWindow.h
D:\Ddrive\MSc Project\Result\Original Terrain Rendering\Original Terrain Rendering\GeneratedFiles\Debug\moc_renderWindow.cpp
^renderWidget.h
D:\Ddrive\MSc Project\Result\Original Terrain Rendering\Original Terrain Rendering\GeneratedFiles\Debug\moc_renderWidget.cpp
