﻿Mode, FPS value,,
move,12,stop,32
move,16,stop,34
move,18,stop,34
move,16,stop,32
move,16,stop,16
move,16,stop,26
move,12,stop,34
move,12,stop,34
move,12,stop,32
move,14,stop,36
move,14,stop,32
move,16,stop,28
move,16,stop,32
move,18,stop,34
move,16,stop,32
move,16,stop,34
move,16,stop,34
move,18,stop,34
move,18,stop,34
move,16,stop,32
move,18,stop,32
move,18,stop,34
move,16,stop,34
move,18,stop,32
move,18,stop,34
move,16,stop,34
move,18,stop,34
move,18,stop,32
move,16,stop,34
move,16,stop,34
move,16,stop,34
move,16,stop,34
move,16,stop,34
move,18,stop,36
move,18,stop,32
move,18,stop,36
move,16,stop,34
move,16,stop,32
move,18,stop,26
move,16,stop,30
move,18,stop,32
move,18,stop,28
move,18,stop,34
move,16,stop,32
move,16,stop,34
move,16,stop,34
move,18,stop,34
move,18,stop,34
move,16,stop,36
move,18,stop,34
move,16,stop,34
move,16,stop,34
move,18,stop,30
move,18,stop,36
move,16,stop,36
move,16,stop,36
move,16,stop,34
move,16,stop,36
move,18,stop,34
move,16,stop,36
move,18,stop,34
move,16,stop,34
move,16,stop,34
move,16,stop,34
move,18,stop,36
move,18,stop,34
move,18,stop,34
move,18,stop,34
move,18,stop,34
move,16,stop,34
move,18,stop,32
move,18,stop,34
move,16,stop,36
move,16,stop,34
move,16,stop,34
move,14,stop,34
move,12,stop,34
move,14,stop,34
move,12,stop,34
move,14,stop,32
move,14,stop,34
move,16,stop,36
move,18,stop,36
move,18,stop,34
move,16,stop,34
move,18,stop,34
move,16,stop,34
move,18,stop,34
move,18,stop,34
move,16,stop,34
move,16,stop,34
move,18,stop,36
move,16,stop,36
move,16,stop,34
move,16,stop,34
move,16,stop,34
move,18,stop,32
move,16,stop,34
move,16,stop,34
move,18,stop,34
move,18,stop,32
move,16,stop,34
move,18,stop,36
move,16,stop,32
move,16,stop,36
move,16,stop,34
move,16,stop,32
move,18,stop,36
move,16,stop,34
move,16,stop,34
move,16,stop,36
move,16,stop,32
move,18,stop,34
move,18,stop,36
move,18,stop,34
move,18,stop,34
move,18,stop,36
move,18,stop,34
move,18,stop,34
move,16,stop,32
move,16,stop,34
move,16,stop,34
move,16,stop,30
move,16,stop,34
move,16,stop,34
move,16,stop,34
move,16,stop,32
move,16,stop,36
move,16,stop,36
move,16,stop,32
move,16,stop,34
move,18,stop,34
move,16,stop,34
move,16,stop,34
move,18,stop,34
move,18,stop,34
move,16,stop,34
move,16,stop,34
move,16,stop,34
move,16,stop,34
move,18,stop,34
move,16,stop,34
move,16,stop,30
move,18,stop,32
move,16,stop,34
move,18,stop,32
move,18,stop,34
move,16,stop,34
move,16,stop,32
move,16,stop,36
move,18,stop,34
move,16,stop,34
move,16,stop,34
move,18,stop,34
move,16,stop,34
move,16,stop,32
move,16,stop,36
move,16,stop,34
move,16,stop,34
move,18,stop,34
move,16,stop,34
move,16,stop,32
move,16,stop,34
move,16,stop,34
move,16,stop,34
move,16,stop,34
move,18,stop,34
move,18,stop,30
move,18,stop,34
move,18,stop,34
move,16,stop,32
move,18,stop,32
,16.53488372,,33.54651163
,,,
total fps average:,,25.04069767,
