^D:\DDRIVE\MSC PROJECT\RESULT\GEOMETRY CLIPMAPS\GEOMETRY CLIPMAPS\READTIFF.CPP
D:\DDRIVE\MSC PROJECT\RESULT\GEOMETRY CLIPMAPS\GEOMETRY CLIPMAPS\RELEASE\READTIFF.OBJ
^D:\DDRIVE\MSC PROJECT\RESULT\GEOMETRY CLIPMAPS\GEOMETRY CLIPMAPS\GENERATEDFILES\QRC_GEOMETRYCLIPMAPS.CPP|D:\DDRIVE\MSC PROJECT\RESULT\GEOMETRY CLIPMAPS\GEOMETRY CLIPMAPS\GENERATEDFILES\RELEASE\MOC_RENDERWIDGET.CPP|D:\DDRIVE\MSC PROJECT\RESULT\GEOMETRY CLIPMAPS\GEOMETRY CLIPMAPS\GENERATEDFILES\RELEASE\MOC_RENDERWINDOW.CPP|D:\DDRIVE\MSC PROJECT\RESULT\GEOMETRY CLIPMAPS\GEOMETRY CLIPMAPS\MAIN.CPP|D:\DDRIVE\MSC PROJECT\RESULT\GEOMETRY CLIPMAPS\GEOMETRY CLIPMAPS\READTIFF.CPP|D:\DDRIVE\MSC PROJECT\RESULT\GEOMETRY CLIPMAPS\GEOMETRY CLIPMAPS\RENDERWIDGET.CPP|D:\DDRIVE\MSC PROJECT\RESULT\GEOMETRY CLIPMAPS\GEOMETRY CLIPMAPS\RENDERWINDOW.CPP
D:\DDRIVE\MSC PROJECT\RESULT\GEOMETRY CLIPMAPS\GEOMETRY CLIPMAPS\RELEASE\RENDERWIDGET.OBJ
D:\DDRIVE\MSC PROJECT\RESULT\GEOMETRY CLIPMAPS\GEOMETRY CLIPMAPS\RELEASE\MAIN.OBJ
D:\DDRIVE\MSC PROJECT\RESULT\GEOMETRY CLIPMAPS\GEOMETRY CLIPMAPS\RELEASE\READTIFF.OBJ
D:\DDRIVE\MSC PROJECT\RESULT\GEOMETRY CLIPMAPS\GEOMETRY CLIPMAPS\RELEASE\QRC_GEOMETRYCLIPMAPS.OBJ
D:\DDRIVE\MSC PROJECT\RESULT\GEOMETRY CLIPMAPS\GEOMETRY CLIPMAPS\RELEASE\MOC_RENDERWINDOW.OBJ
D:\DDRIVE\MSC PROJECT\RESULT\GEOMETRY CLIPMAPS\GEOMETRY CLIPMAPS\RELEASE\RENDERWINDOW.OBJ
D:\DDRIVE\MSC PROJECT\RESULT\GEOMETRY CLIPMAPS\GEOMETRY CLIPMAPS\RELEASE\MOC_RENDERWIDGET.OBJ
