^GeometryClipmaps.ui
D:\Ddrive\MSc Project\Result\Geometry Clipmaps\Geometry Clipmaps\GeneratedFiles\ui_GeometryClipmaps.h
^GeometryClipmaps.qrc
D:\Ddrive\MSc Project\Result\Geometry Clipmaps\Geometry Clipmaps\GeneratedFiles\qrc_GeometryClipmaps.cpp
^renderWindow.h
D:\Ddrive\MSc Project\Result\Geometry Clipmaps\Geometry Clipmaps\GeneratedFiles\Release\moc_renderWindow.cpp
^renderWidget.h
D:\Ddrive\MSc Project\Result\Geometry Clipmaps\Geometry Clipmaps\GeneratedFiles\Release\moc_renderWidget.cpp
^GeometryClipmaps.ui
D:\Ddrive\MSc Project\Result\Geometry Clipmaps\Geometry Clipmaps\GeneratedFiles\ui_GeometryClipmaps.h
^GeometryClipmaps.qrc
D:\Ddrive\MSc Project\Result\Geometry Clipmaps\Geometry Clipmaps\GeneratedFiles\qrc_GeometryClipmaps.cpp
^renderWindow.h
D:\Ddrive\MSc Project\Result\Geometry Clipmaps\Geometry Clipmaps\GeneratedFiles\Release\moc_renderWindow.cpp
^renderWidget.h
D:\Ddrive\MSc Project\Result\Geometry Clipmaps\Geometry Clipmaps\GeneratedFiles\Release\moc_renderWidget.cpp
