^D:\DDRIVE\MSC PROJECT\RESULT\GEOMETRY CLIPMAPS\GEOMETRY CLIPMAPS\RELEASE\MAIN.OBJ|D:\DDRIVE\MSC PROJECT\RESULT\GEOMETRY CLIPMAPS\GEOMETRY CLIPMAPS\RELEASE\MOC_RENDERWIDGET.OBJ|D:\DDRIVE\MSC PROJECT\RESULT\GEOMETRY CLIPMAPS\GEOMETRY CLIPMAPS\RELEASE\MOC_RENDERWINDOW.OBJ|D:\DDRIVE\MSC PROJECT\RESULT\GEOMETRY CLIPMAPS\GEOMETRY CLIPMAPS\RELEASE\QRC_GEOMETRYCLIPMAPS.OBJ|D:\DDRIVE\MSC PROJECT\RESULT\GEOMETRY CLIPMAPS\GEOMETRY CLIPMAPS\RELEASE\READTIFF.OBJ|D:\DDRIVE\MSC PROJECT\RESULT\GEOMETRY CLIPMAPS\GEOMETRY CLIPMAPS\RELEASE\RENDERWIDGET.OBJ|D:\DDRIVE\MSC PROJECT\RESULT\GEOMETRY CLIPMAPS\GEOMETRY CLIPMAPS\RELEASE\RENDERWINDOW.OBJ
D:\QT\5.12.0\MSVC2017\LIB\QTMAIND.LIB
D:\QT\5.12.0\MSVC2017\LIB\QT5CORED.LIB
D:\QT\5.12.0\MSVC2017\LIB\QT5GUID.LIB
D:\QT\5.12.0\MSVC2017\LIB\QT5OPENGLD.LIB
C:\PROGRAM FILES (X86)\WINDOWS KITS\10\LIB\10.0.16299.0\UM\X86\OPENGL32.LIB
C:\PROGRAM FILES (X86)\WINDOWS KITS\10\LIB\10.0.16299.0\UM\X86\GLU32.LIB
D:\QT\5.12.0\MSVC2017\LIB\QT5OPENGLEXTENSIONSD.LIB
D:\QT\5.12.0\MSVC2017\LIB\QT5WIDGETSD.LIB
D:\DDRIVE\MSC PROJECT\RESULT\GEOMETRY CLIPMAPS\GEOMETRY CLIPMAPS\GLUT64.LIB
D:\DDRIVE\MSC PROJECT\RESULT\GEOMETRY CLIPMAPS\GEOMETRY CLIPMAPS\LIBTIFF.LIB
D:\QT\5.12.0\MSVC2017\LIB\QT5UITOOLSD.LIB
C:\PROGRAM FILES (X86)\WINDOWS KITS\10\LIB\10.0.16299.0\UM\X86\KERNEL32.LIB
C:\PROGRAM FILES (X86)\WINDOWS KITS\10\LIB\10.0.16299.0\UM\X86\USER32.LIB
C:\PROGRAM FILES (X86)\WINDOWS KITS\10\LIB\10.0.16299.0\UM\X86\GDI32.LIB
C:\PROGRAM FILES (X86)\WINDOWS KITS\10\LIB\10.0.16299.0\UM\X86\WINSPOOL.LIB
C:\PROGRAM FILES (X86)\WINDOWS KITS\10\LIB\10.0.16299.0\UM\X86\COMDLG32.LIB
C:\PROGRAM FILES (X86)\WINDOWS KITS\10\LIB\10.0.16299.0\UM\X86\ADVAPI32.LIB
C:\PROGRAM FILES (X86)\WINDOWS KITS\10\LIB\10.0.16299.0\UM\X86\SHELL32.LIB
C:\PROGRAM FILES (X86)\WINDOWS KITS\10\LIB\10.0.16299.0\UM\X86\OLE32.LIB
C:\PROGRAM FILES (X86)\WINDOWS KITS\10\LIB\10.0.16299.0\UM\X86\OLEAUT32.LIB
C:\PROGRAM FILES (X86)\WINDOWS KITS\10\LIB\10.0.16299.0\UM\X86\UUID.LIB
C:\PROGRAM FILES (X86)\WINDOWS KITS\10\LIB\10.0.16299.0\UM\X86\ODBC32.LIB
C:\PROGRAM FILES (X86)\WINDOWS KITS\10\LIB\10.0.16299.0\UM\X86\ODBCCP32.LIB
D:\DDRIVE\MSC PROJECT\RESULT\GEOMETRY CLIPMAPS\GEOMETRY CLIPMAPS\RELEASE\MAIN.OBJ
D:\DDRIVE\MSC PROJECT\RESULT\GEOMETRY CLIPMAPS\GEOMETRY CLIPMAPS\RELEASE\READTIFF.OBJ
D:\DDRIVE\MSC PROJECT\RESULT\GEOMETRY CLIPMAPS\GEOMETRY CLIPMAPS\RELEASE\RENDERWIDGET.OBJ
D:\DDRIVE\MSC PROJECT\RESULT\GEOMETRY CLIPMAPS\GEOMETRY CLIPMAPS\RELEASE\RENDERWINDOW.OBJ
D:\DDRIVE\MSC PROJECT\RESULT\GEOMETRY CLIPMAPS\GEOMETRY CLIPMAPS\RELEASE\QRC_GEOMETRYCLIPMAPS.OBJ
D:\DDRIVE\MSC PROJECT\RESULT\GEOMETRY CLIPMAPS\GEOMETRY CLIPMAPS\RELEASE\MOC_RENDERWINDOW.OBJ
D:\DDRIVE\MSC PROJECT\RESULT\GEOMETRY CLIPMAPS\GEOMETRY CLIPMAPS\RELEASE\MOC_RENDERWIDGET.OBJ
C:\WINDOWS\GLOBALIZATION\SORTING\SORTDEFAULT.NLS
C:\PROGRAM FILES (X86)\MICROSOFT VISUAL STUDIO\2017\COMMUNITY\VC\TOOLS\MSVC\14.15.26726\LIB\X86\LIBCPMT.LIB
C:\PROGRAM FILES (X86)\WINDOWS KITS\10\LIB\10.0.16299.0\UM\X86\WINMM.LIB
D:\DDRIVE\MSC PROJECT\RESULT\GEOMETRY CLIPMAPS\GEOMETRY CLIPMAPS\GLUT32.LIB
C:\PROGRAM FILES (X86)\MICROSOFT VISUAL STUDIO\2017\COMMUNITY\VC\TOOLS\MSVC\14.15.26726\LIB\X86\LIBCMT.LIB
C:\PROGRAM FILES (X86)\MICROSOFT VISUAL STUDIO\2017\COMMUNITY\VC\TOOLS\MSVC\14.15.26726\LIB\X86\OLDNAMES.LIB
C:\PROGRAM FILES (X86)\MICROSOFT VISUAL STUDIO\2017\COMMUNITY\VC\TOOLS\MSVC\14.15.26726\LIB\X86\LIBVCRUNTIME.LIB
C:\PROGRAM FILES (X86)\WINDOWS KITS\10\LIB\10.0.16299.0\UCRT\X86\LIBUCRT.LIB
C:\WINDOWS\SYSTEM32\TZRES.DLL
